{
    "coord": {
        "lon": -0.13,
        "lat": 51.51
    },
    "weather": [
                {
                "id": 701,
                "main": "Mist",
                "description": "mist",
                "icon": "50n"
                }
                ],
    "base": "stations",
    "main": {
        "temp": 283.38,
        "pressure": 1010,
        "humidity": 93,
        "temp_min": 282.15,
        "temp_max": 284.15
    },
    "visibility": 10000,
    "wind": {
        "speed": 2.1,
        "deg": 150
    },
    "clouds": {
        "all": 40
    },
    "dt": 1446083400,
    "sys": {
        "type": 1,
        "id": 5089,
        "message": 0.0212,
        "country": "GB",
        "sunrise": 1446101290,
        "sunset": 1446136770
    },
    "id": 2643743,
    "name": "London",
    "cod": 200
}